839571854.txt
4032078349.txt
7200909294795985.txt
106712505839187115.txt
137039175225669202.txt
186252122554073902.txt
198095419299109015.txt
285193164173908119.txt
291457873772169850.txt
310115229755252804.txt
318605487177535390.txt
361088060564679541.txt
416982545038866381.txt
498288912635372250.txt
596243342848372994.txt
753788749182472094.txt
774902189934317470.txt
813845766508711838.txt
822893464423536791.txt
844497438399770414.txt
918997921808322462.txt
921673256532421493.txt
932728902842119166.txt
958155331514903413.txt
961807355282287871.txt
967119279346114403.txt
1217713821817957214.txt
1220510500879039402.txt
1256021786440800407.txt
1274834136297077674.txt
1302272216156299107.txt
1329042452466962334.txt
1382379409343057822.txt
1414871759054588538.txt
1417791169885441950.txt
1429946471286529891.txt
1430616968728481694.txt
1439618026179989406.txt
1662866365974536035.txt
1695988785901539230.txt
1769963494426611614.txt
1782775771948164599.txt
1813974359316172702.txt
1819235982016581534.txt
1841553513968343191.txt
1896491308234872983.txt
1917755772123119147.txt
2022384725476133498.txt
2066297869688936599.txt
2174521569032252277.txt
2308197885236961123.txt
2328939535065716887.txt
2465894949608709987.txt
2596638601742948503.txt
2600241540396186538.txt
2725082546451472227.txt
2848735193691019899.txt
2864622405394146807.txt
2912547157789832363.txt
2945651512637761238.txt
3012036612089655575.txt
3050252013678170014.txt
3103068519302238110.txt
3105945061473731453.txt
3138293932797872762.txt
3184512910394462110.txt
3251749102994919326.txt
3313754990289051491.txt
3333806885549938839.txt
3334540297046921118.txt
3400641713978683671.txt
3432460058132549534.txt
3460577054359328919.txt
3468459292891615134.txt
3593865736570081182.txt
3600723278709484799.txt
3760218889614412410.txt
3780017985775013790.txt
3820026607078522586.txt
3839971372829657722.txt
3850875402337102709.txt
3868573422488688791.txt
3914135884342714211.txt
3981757172615968338.txt
4019995319593556603.txt
4025243492834565987.txt
4093960915202119831.txt
4153621866006162293.txt
4167707192675597764.txt
4407639204252281694.txt
4412244558876077311.txt
4600808057577109074.txt
4689040469579337630.txt
4701238633379960983.txt
4708620873888024527.txt
4833917487482706071.txt
4841667677245476766.txt
4971215312624326807.txt
5006507987323039534.txt
5081103567538041111.txt
5103139823027556254.txt
5124097983531782046.txt
5154022007018053475.txt
5163709868394897251.txt
5176929585965895582.txt
5342339837230508894.txt
5402868840242941854.txt
5431035774054471831.txt
5460550987960090052.txt
5473347601162759006.txt
5539213858368166039.txt
5552044022769082185.txt
5693375385372386069.txt
5756297545797406622.txt
5764761493232195735.txt
5817066266387847319.txt
5833513816873982587.txt
5974042434757943139.txt
5991596942561709982.txt
6131630408467812254.txt
6141898020719097003.txt
6176496152237903774.txt
6256901221374037918.txt
6420090595434631070.txt
6446459853504551063.txt
6448259993143938974.txt
6515047743290309546.txt
6524870328674967924.txt
6590376267779820154.txt
6642520135990729339.txt
6677799698443835543.txt
6725061675027257506.txt
6788563093334490026.txt
6809364334950783127.txt
6816487004221804446.txt
6820619176490866839.txt
6899366097567047523.txt
6913958490357070762.txt
6914040702363277463.txt
7067739807030879711.txt
7076567011439097913.txt
7155330022868880129.txt
7160051046070685598.txt
7212098244235190115.txt
7246039749043688769.txt
7262792670283280174.txt
7314234032625356702.txt
7324796496786004119.txt
7325926756409959808.txt
7371981710461046686.txt
7381019073271107486.txt
7386432727923182202.txt
7428459992025096035.txt
7448336759994488983.txt
7503152313783357342.txt
7507666345886289822.txt
7545172044719394718.txt
7567814489533648798.txt
7591332059704266654.txt
7599232634460810101.txt
7653268971331063710.txt
7723189068933404823.txt
7772623425250826391.txt
7780399672580181918.txt
7820532120880870571.txt
7908169801383843991.txt
7912999366140694430.txt
7976969158803132318.txt
7993331923343970206.txt
7995534229367986327.txt
8036479506159940813.txt
8111305844512329630.txt
8154039514977079198.txt
8210260756272686559.txt
8261726150445457251.txt
8654049532997572759.txt
8704251467276816286.txt
8801930744553607070.txt
8818198295377909911.txt
8870897965006624919.txt
8988378211353393101.txt
9077143660360145047.txt
9167707335055183774.txt
9306878949841395555.txt
9312304839368445854.txt
9349452694411349918.txt
9374522371273461662.txt
9381409452904374115.txt
9453546480988362903.txt
9493923685017870708.txt
9611453512012861342.txt
9614182699063541453.txt
9716815137162465182.txt
9813244173928516218.txt
9820777358673931519.txt
9830238953952439134.txt
9882774932008958890.txt
9892358068314529635.txt
9978099986503262051.txt
10040403751387568279.txt
10082209703207964574.txt
10185374005909065630.txt
10217056287434543006.txt
10260395920442744675.txt
10262622012089634718.txt
10263235268994994078.txt
10315816702645052585.txt
10449078105615821662.txt
10473482393518119063.txt
10616200358195080053.txt
10635717347122679710.txt
10635834514985380702.txt
10645398295015626903.txt
10732544147819108503.txt
10748487974034038627.txt
10754061806497128291.txt
10789695090075176862.txt
10794520299641200483.txt
10806415917449547678.txt
10820581446854678679.txt
10830320382569156510.txt
10833986557072045227.txt
10871652232956516503.txt
10994923475179999134.txt
10999354688842012823.txt
11024392001498213631.txt
11029680012691574686.txt
11126027501223212203.txt
11199908099415936926.txt
11246100029898206069.txt
11257576738381928599.txt
11259181499959021470.txt
11283312004912451486.txt
11299643480616538014.txt
11329096475039457123.txt
11351731742963359587.txt
11416225874926087029.txt
11420142999961296739.txt
11430256124737425310.txt
11441804485755967639.txt
11469122077963299701.txt
11524849466504601443.txt
11569571944558038942.txt
11741236753677488030.txt
11778350131510468451.txt
12065985706231291747.txt
12081511446070648675.txt
12128986797872220575.txt
12132873642292247466.txt
12181696816797257630.txt
12209945455145738083.txt
12213354681433657246.txt
12231979635699503666.txt
12251359115173098667.txt
12259859287353104535.txt
12322026231719858078.txt
12355055098575231127.txt
12372903310501679006.txt
12418085974463504756.txt
12565671282516234142.txt
12568218206712696734.txt
12574056239794032542.txt
12687441756214719659.txt
12747007095265890206.txt
12771576683315924894.txt
12843985585465001127.txt
12866732327380155306.txt
12868880962079390634.txt
12908253870631399214.txt
12937567876410546327.txt
13075523501563353239.txt
13117944824826468503.txt
13131869512527026327.txt
13159029247910940574.txt
13272285615656079262.txt
13311097581333736703.txt
13396210481714469015.txt
13422181869780506775.txt
13464465979905387381.txt
13495909045041958814.txt
13503992816230686563.txt
13691917346543046558.txt
13728028502052371908.txt
13768693397360777367.txt
13967881645403183255.txt
13977393785369595806.txt
13982175338100494238.txt
14002420210541379642.txt
14015515902203989918.txt
14039158861063297175.txt
14088185563441336222.txt
14191157186733054103.txt
14255165563968229278.txt
14388152617747650711.txt
14478017376709578654.txt
14627388904676069278.txt
14636681809205775758.txt
14810735168864942029.txt
14823460809155507794.txt
14854915037699837854.txt
14867671026144448414.txt
14909146554659311518.txt
14931691102776549219.txt
14962083864828514206.txt
15051566151189698711.txt
15081900158472090795.txt
15083841262756075671.txt
15102466416462756778.txt
15228192638260023198.txt
15426808697874354078.txt
15489955613457584030.txt
15496769488878374814.txt
15544212745602011038.txt
15558886063282130846.txt
15603158070008784375.txt
15710030188676190110.txt
15798656360787102330.txt
15846832915757731742.txt
15957051681382497835.txt
15964126763214507934.txt
15994861138281273495.txt
15999558799306454187.txt
16068883578151984995.txt
16172116027725093015.txt
16226895611162857374.txt
16238378262063288222.txt
16277427794117863113.txt
16310586722535905431.txt
16315831805317257367.txt
16326854990787136122.txt
16475822297699802979.txt
16481368848737389178.txt
16492993011520966558.txt
16602509925827698531.txt
16625140032708349854.txt
16641845580002531479.txt
16670312295409455006.txt
16732339966984473210.txt
16745690002246406046.txt
16849569202253926302.txt
16853812555420491619.txt
16859026037954739755.txt
16876750299337103511.txt
16942860872577671011.txt
16964626154748278087.txt
16986408145913157783.txt
17033644882015883166.txt
17079640261164294516.txt
17187365982703021773.txt
17305536750611002539.txt
17511708944298711191.txt
17514597694724992255.txt
17642281036919229050.txt
17726729441108103070.txt
17729003162434867102.txt
17751341685265882979.txt
17762422029500586135.txt
17820360527024820126.txt
17940515217837723550.txt
17947032559135421611.txt
17980659575566327651.txt
18038362153457880990.txt
18049941462597308318.txt
18091387709438597271.txt
18104521311407872151.txt
18105211562778496926.txt
18207822258493495447.txt
18232261554869781535.txt
18249293482037677982.txt
18322735528412404234.txt
